{
    "parent": "item/handheld",
    "textures": {
        "layer0": "item/diamond_axe"
    },
	"overrides": [
		{ "predicate": { "custom_model_data": 1}, "model": "item/boxcraft/magma_axe" },
		{ "predicate": { "custom_model_data": 100}, "model": "item/boxcraft/diamond_battleaxe" },
		{ "predicate": { "custom_model_data": 101}, "model": "item/boxcraft/magma_battleaxe" }
	]
}
