{
    "parent": "item/generated",
    "textures": {
        "layer0": "item/diamond_leggings"
    },
	"overrides": [
		{ "predicate": { "custom_model_data": 1}, "model": "item/boxcraft/magma_leggings" }
	]
}
