{
	"parent": "item/generated",
	"textures": {
		"layer0": "item/end_crystal"
	},
	"overrides": [
		{ "predicate": { "custom_model_data": 1}, "model": "item/boxcraft/nether_crystal" },
		{ "predicate": { "custom_model_data": 2}, "model": "item/boxcraft/end_matter" }
	]
}
